{"count":61,"overflow":false,"next":"https://api.predicthq.com/v1/events/?active.gte=2026-09-15&active.lte=2026-10-10&limit=3&offset=3&q=Prague&sort=rank","previous":null,"results":[{"relevance":null,"id":"4cv7YH9ExhxfguH3tm","title":"Dozinky: a Czech Harvest Festival","description":"Sourced from predicthq.com - Dozinky is an annual Czech harvest festival held on Main Street in New Prague, Minnesota that celebrates the town’s Czech heritage with traditional food, crafts, and folk entertainment. The event features live music on multiple stages, a parade and family activities, and community highlights such as a classic car cruise and artisans showcasing ethnic goods. It is notable for bringing together local businesses, cultural performers, and visitors to honor harvest traditions in a downtown street-festival setting.","category":"festivals","rank":78,"local_rank":100,"phq_attendance":25000,"entities":[{"entity_id":"MMhXwHfu77HjVqCzw9dwXZ","name":"Dozinky Czech Harvest Festival","type":"event-group","formatted_address":"129 Main St W, New Prague, MN 56071, USA","category":"festivals","labels":["event-group","festival","recurring"],"recurring":{"ical":"DTSTART;VALUE=DATE-TIME:20250918T000000\nRRULE:FREQ=YEARLY;INTERVAL=1"}}],"duration":259199,"start":"2026-09-17T05:00:00Z","start_local":"2026-09-17T00:00:00","end":"2026-09-20T04:59:59Z","end_local":"2026-09-19T23:59:59","updated":"2026-05-24T01:27:07Z","first_seen":"2026-01-19T00:54:04Z","timezone":"America/Chicago","location":[-93.5788244,44.54361655],"geo":{"geometry":{"coordinates":[[[-93.57356613966932,44.544001298317035],[-93.57316614135229,44.54400013798637],[-93.57316846201363,44.5432001413523],[-93.58408266033067,44.543231801682964],[-93.5844826586477,44.543232962013626],[-93.58448033798636,44.5440329586477],[-93.57356613966932,44.544001298317035]]],"type":"Polygon"},"address":{"country_code":"US","formatted_address":"Main Street West, New Prague, MN 56071, United States of America","locality":"New Prague","postcode":"56071","region":"Minnesota"}},"impact_patterns":[{"vertical":"accommodation","impact_type":"phq_attendance","impacts":[{"date_local":"2026-09-15","value":667,"position":"leading"},{"date_local":"2026-09-16","value":2334,"position":"leading"},{"date_local":"2026-09-17","value":6667,"position":"event_day"},{"date_local":"2026-09-18","value":8333,"position":"event_day"},{"date_local":"2026-09-19","value":10000,"position":"event_day"},{"date_local":"2026-09-20","value":3500,"position":"lagging"},{"date_local":"2026-09-21","value":1000,"position":"lagging"}]},{"vertical":"hospitality","impact_type":"phq_attendance","impacts":[{"date_local":"2026-09-16","value":3334,"position":"leading"},{"date_local":"2026-09-17","value":6667,"position":"event_day"},{"date_local":"2026-09-18","value":8333,"position":"event_day"},{"date_local":"2026-09-19","value":10000,"position":"event_day"},{"date_local":"2026-09-20","value":3300,"position":"lagging"}]},{"vertical":"retail","impact_type":"phq_attendance","impacts":[{"date_local":"2026-09-14","value":1334,"position":"leading"},{"date_local":"2026-09-15","value":1667,"position":"leading"},{"date_local":"2026-09-16","value":2001,"position":"leading"},{"date_local":"2026-09-17","value":6667,"position":"event_day"},{"date_local":"2026-09-18","value":8333,"position":"event_day"},{"date_local":"2026-09-19","value":10000,"position":"event_day"},{"date_local":"2026-09-20","value":5000,"position":"lagging"},{"date_local":"2026-09-21","value":2500,"position":"lagging"},{"date_local":"2026-09-22","value":2500,"position":"lagging"}]}],"scope":"locality","country":"US","place_hierarchies":[["6295630","6255149","6252001","5037779","5034327","5039138","5039133"],["6295630","6255149","6252001","5037779","5046749","5039133"]],"state":"active","brand_safe":true,"private":false,"predicted_event_spend":1663700,"predicted_event_spend_industries":{"accommodation":291661,"hospitality":1029172,"transportation":342865},"phq_labels":[{"label":"food-and-beverage","weight":0.269},{"label":"family-activities","weight":0.267},{"label":"parade","weight":0.253},{"label":"nature-and-outdoor-activities","weight":0.211}]},{"relevance":null,"id":"FaDe8EboCb9akMvFKS","title":"For Arch","description":"Sourced from predicthq.com - For Arch is an international trade fair that brings together architects, builders, designers and manufacturers to showcase the latest materials, technologies and solutions for construction and interior design. It takes place at PVA EXPO PRAHA in Prague 9 and features exhibition stands, product demonstrations and expert seminars aimed at both industry professionals and interested members of the public. The fair is notable as one of the Czech Republic’s leading architecture and building events, highlighting trends in sustainable building, smart technologies and contemporary design.","category":"expos","rank":76,"local_rank":94,"phq_attendance":20000,"entities":[{"entity_id":"mAihj3nUgCttQNJQuj6xqC","name":"PVA EXPO PRAHA","type":"venue","formatted_address":"667 Beranových, 199 00 Praha 9, Czechia"},{"entity_id":"EJsSNjPX5sME6VBEskBHJj","name":"For Arch","type":"event-group","category":"expos","labels":["architecture","construction","event-group","industrial"],"description":"FOR ARCH is a traditional, annual Czech trade fair. During the 34 years of its existence, it has become the single most important and most attended fair of building industry in the Czech Republic, and a well-established meeting point of professionals from the field of buildings and constructions."}],"duration":291600,"start":"2026-09-16T07:00:00Z","start_local":"2026-09-16T09:00:00","end":"2026-09-19T16:00:00Z","end_local":"2026-09-19T18:00:00","updated":"2026-05-19T04:04:27Z","first_seen":"2025-11-18T07:24:50Z","timezone":"Europe/Prague","location":[14.5151874,50.1289496],"geo":{"geometry":{"coordinates":[14.5151874,50.1289496],"type":"Point"},"placekey":"@4y2-hwm-fj9","address":{"country_code":"CZ","formatted_address":"667 Beranových, 199 00 Praha 9, Czechia","postcode":"199 00","locality":"Praha 9","region":"Hlavní město Praha"}},"impact_patterns":[{"vertical":"accommodation","impact_type":"phq_attendance","impacts":[{"date_local":"2026-09-14","value":228,"position":"leading"},{"date_local":"2026-09-15","value":1137,"position":"leading"},{"date_local":"2026-09-16","value":4545,"position":"event_day"},{"date_local":"2026-09-17","value":4545,"position":"event_day"},{"date_local":"2026-09-18","value":5455,"position":"event_day"},{"date_local":"2026-09-19","value":5455,"position":"event_day"},{"date_local":"2026-09-20","value":546,"position":"lagging"},{"date_local":"2026-09-21","value":273,"position":"lagging"}]},{"vertical":"hospitality","impact_type":"phq_attendance","impacts":[{"date_local":"2026-09-14","value":228,"position":"leading"},{"date_local":"2026-09-15","value":909,"position":"leading"},{"date_local":"2026-09-16","value":4545,"position":"event_day"},{"date_local":"2026-09-17","value":4545,"position":"event_day"},{"date_local":"2026-09-18","value":5455,"position":"event_day"},{"date_local":"2026-09-19","value":5455,"position":"event_day"},{"date_local":"2026-09-20","value":819,"position":"lagging"}]},{"vertical":"retail","impact_type":"phq_attendance","impacts":[{"date_local":"2026-09-14","value":1364,"position":"leading"},{"date_local":"2026-09-15","value":2273,"position":"leading"},{"date_local":"2026-09-16","value":4545,"position":"event_day"},{"date_local":"2026-09-17","value":4545,"position":"event_day"},{"date_local":"2026-09-18","value":5455,"position":"event_day"},{"date_local":"2026-09-19","value":5455,"position":"event_day"},{"date_local":"2026-09-20","value":2182,"position":"lagging"},{"date_local":"2026-09-21","value":1637,"position":"lagging"},{"date_local":"2026-09-22","value":1637,"position":"lagging"}]}],"scope":"locality","country":"CZ","place_hierarchies":[["6295630","6255148","3077311","3067695","8378788","11951216","3078251"],["6295630","6255148","3077311","3067695","3067696"]],"state":"active","brand_safe":true,"private":false,"predicted_event_spend":1656452,"predicted_event_spend_industries":{"accommodation":879125,"hospitality":597559,"transportation":179766},"phq_labels":[{"label":"design-and-furnishing","weight":0.652},{"label":"construction-and-infrastructure","weight":0.199},{"label":"art-and-cultural","weight":0.149}]},{"relevance":null,"id":"7cq4rfiQKNc8XkdCXW","title":"Davis Cup Qualifiers - Česko vs USA","alternate_titles":["Davis Cup Qualifiers | Fast Track"],"description":"Sourced from predicthq.com - Prague hosts a Davis Cup qualifier between the Czech Republic and the United States at the O2 Arena. This international men’s team tennis showdown advances teams toward the Davis Cup Finals, featuring top players from both nations in a high-stakes tie. The Prague venue underscores the event’s status as a major international tennis occasion.","category":"sports","rank":75,"local_rank":92,"phq_attendance":18000,"entities":[{"entity_id":"38xJwFcJmmA5uj2hJNWi6Xr","name":"O2 arena","type":"venue","formatted_address":"Českomoravská 2345/17, 190 00 Praha 9, Czechia"}],"duration":0,"start":"2026-09-19T12:00:00Z","start_local":"2026-09-19T14:00:00","end":"2026-09-19T12:00:00Z","end_local":"2026-09-19T14:00:00","updated":"2026-06-15T14:55:15Z","first_seen":"2026-05-26T00:04:38Z","timezone":"Europe/Prague","location":[14.493774799999983,50.1047889],"geo":{"geometry":{"coordinates":[14.493774799999983,50.1047889],"type":"Point"},"placekey":"@4y2-hwr-2rk","address":{"country_code":"CZ","formatted_address":"Českomoravská 2345/17, 190 00 Praha 9, Czechia","postcode":"190 00","locality":"Praha 9","region":"Hlavní město Praha"}},"impact_patterns":[{"vertical":"accommodation","impact_type":"phq_attendance","impacts":[{"date_local":"2026-09-17","value":3600,"position":"leading"},{"date_local":"2026-09-18","value":12600,"position":"leading"},{"date_local":"2026-09-19","value":18000,"position":"event_day"},{"date_local":"2026-09-20","value":5400,"position":"lagging"}]},{"vertical":"hospitality","impact_type":"phq_attendance","impacts":[{"date_local":"2026-09-18","value":6300,"position":"leading"},{"date_local":"2026-09-19","value":18000,"position":"event_day"},{"date_local":"2026-09-20","value":6300,"position":"lagging"}]},{"vertical":"retail","impact_type":"phq_attendance","impacts":[{"date_local":"2026-09-16","value":3600,"position":"leading"},{"date_local":"2026-09-17","value":4500,"position":"leading"},{"date_local":"2026-09-18","value":5400,"position":"leading"},{"date_local":"2026-09-19","value":18000,"position":"event_day"},{"date_local":"2026-09-20","value":5400,"position":"lagging"},{"date_local":"2026-09-21","value":5400,"position":"lagging"},{"date_local":"2026-09-22","value":4500,"position":"lagging"}]}],"scope":"locality","country":"CZ","place_hierarchies":[["6295630","6255148","3077311","3067695","8378776","11951222","3068455"]],"state":"active","brand_safe":true,"private":false,"predicted_event_spend":822355,"predicted_event_spend_industries":{"accommodation":161176,"hospitality":499388,"transportation":161790},"phq_labels":[{"label":"tennis","weight":1.0}]}]}